…
## The data set

The `tidylsr` package comes with a data set called `samplingframes`, a relatively simple experiment I ran a little while ago (it's experiment two from [this paper](https://psyarxiv.com/2m83v/)). What we were interested in was understanding how people use statistical information to guide inductive inferences. For example, suppose you observe a sample of "robins" that have "plaxium blood" (whatever that is). How likely is it that "sparrows" will possess plaxium blood? Or "cows"? Does it matter how many robins you have seen? Does it matter whether you specifically selected robins and they turned out to have plaxium blood (category sampling) as opposed to detecting animals with plaxium blood that then turned out to all be robins (property sampling)? In that paper we had a computational model of inductive reasoning that made specific predictions about how the sample size (number of robins) and sampling method (property or category) would inflence people's judgments. 

In this particular experiment we didn't show people animals (though we have done those too!) we just showed them small "alien rocks" called "sodor spheres", and asked people to make guesses about new rocks of different sizes: `test_loc` values of 1 and 2 were very similar to the items they were shown during training, whereas value 7 was quite dissimilar. The number of training observations ranged from 2 (`sample_size = "small"`) to 12 (`sample_size = "large"`) and was varied within-subject. So everyone saw two observations, made some generalization judgments (`response` on a scale from 0 to 9), then saw more training observations and so on. Participants were randomly assigned to a `"property"` sampling `condition` or to a category sampling one. We also recorded `age`, `gender`, and assigned each person a unique `id`. So here's the data


```r
samplingframes
```

```
## # A tibble: 4,725 x 8
##       id gender   age condition sample_size n_obs test_item response
##    <dbl> <chr>  <dbl> <chr>     <chr>       <dbl>     <dbl>    <dbl>
##  1     1 male      36 category  small           2         1        8
##  2     1 male      36 category  small           2         2        7
##  3     1 male      36 category  small           2         3        6
##  4     1 male      36 category  small           2         4        6
##  5     1 male      36 category  small           2         5        5
##  6     1 male      36 category  small           2         6        6
##  7     1 male      36 category  small           2         7        3
##  8     1 male      36 category  medium          6         1        9
##  9     1 male      36 category  medium          6         2        7
## 10     1 male      36 category  medium          6         3        5
## # ... with 4,715 more rows
```
…
and here's what that data set looks like...


```r
frames_small
```

```
## # A tibble: 225 x 5
##       id gender   age condition response
##    <dbl> <chr>  <dbl> <chr>        <dbl>
##  1     1 male      36 category      5.33
##  2     2 male      46 category      7.05
##  3     3 female    33 property      4.86
##  4     4 female    71 property      3.86
##  5     5 female    23 property      9   
##  6     6 female    31 category      7.90
##  7     7 male      23 property      3.76
##  8     8 female    31 property      4   
##  9     9 female    37 category      3.38
## 10    10 female    46 category      5.86
## # ... with 215 more rows
```
…
```r
frames_mean <- samplingframes %>%
  group_by(condition,sample_size,test_item) %>%
  summarise(
    mean_response = mean(response),
    lower = lsr::ciMean(response)[1],
    upper = lsr::ciMean(response)[2]
  )
frames_mean
```

```
## # A tibble: 42 x 6
## # Groups:   condition, sample_size [6]
##    condition sample_size test_item mean_response lower upper
##    <chr>     <fct>           <dbl>         <dbl> <dbl> <dbl>
##  1 category  small               1          6.07  5.55  6.59
##  2 category  small               2          6.26  5.84  6.69
##  3 category  small               3          5.87  5.50  6.24
##  4 category  small               4          5.11  4.74  5.49
##  5 category  small               5          4.55  4.12  4.99
##  6 category  small               6          4.16  3.69  4.63
##  7 category  small               7          3.98  3.44  4.52
##  8 category  medium              1          7.32  6.85  7.78
##  9 category  medium              2          7.17  6.80  7.54
## 10 category  medium              3          5.98  5.54  6.42
## # ... with 32 more rows
```
…
